{ "title" : "Diamonds", "artist" : "Rihanna", "duration" : "3:45", "trackId" : "60978718", "playlistTitle" : "ac-c-uk.txt", "positionInPlaylist" : 1, "_id" : { "$oid" : "5798a24edcdaa66f1649baf0" }, "happyRating" : [], "sunRating" : [], "thumpUpRating" : [], "starRating" : [], "heartRating" : [], "__v" : 0 }
{ "title" : "Boulevard Of Broken Dreams (Single Album Version)", "artist" : "Green Day", "duration" : "4:21", "trackId" : "6611231", "playlistTitle" : "ac-c-uk.txt", "positionInPlaylist" : 2, "_id" : { "$oid" : "5798a24edcdaa66f1649baf1" }, "happyRating" : [], "sunRating" : [], "thumpUpRating" : [], "starRating" : [], "heartRating" : [], "__v" : 0 }
{ "title" : "Kaleidoscope", "artist" : "The Script", "duration" : "3:41", "trackId" : "56893431", "playlistTitle" : "ac-c-uk.txt", "positionInPlaylist" : 3, "_id" : { "$oid" : "5798a24edcdaa66f1649baf2" }, "happyRating" : [], "sunRating" : [], "thumpUpRating" : [], "starRating" : [], "heartRating" : [], "__v" : 0 }
{ "title" : "Locked Out Of Heaven", "artist" : "Bruno Mars", "duration" : "3:53", "trackId" : "62724015", "playlistTitle" : "ac-c-uk.txt", "positionInPlaylist" : 4, "_id" : { "$oid" : "5798a24edcdaa66f1649baf3" }, "happyRating" : [], "sunRating" : [], "thumpUpRating" : [], "starRating" : [], "heartRating" : [], "__v" : 0 }
{ "title" : "Summertime Sadness", "artist" : "Lana Del Rey", "duration" : "4:25", "trackId" : "16047072", "playlistTitle" : "ac-c-uk.txt", "positionInPlaylist" : 5, "_id" : { "$oid" : "5798a24edcdaa66f1649baf4" }, "happyRating" : [], "sunRating" : [], "thumpUpRating" : [], "starRating" : [], "heartRating" : [], "__v" : 0 }
{ "title" : "Deine Zeit", "artist" : "Seeed", "duration" : "3:44", "trackId" : "63155639", "playlistTitle" : "ac-c-uk.txt", "positionInPlaylist" : 6, "_id" : { "$oid" : "5798a24edcdaa66f1649baf5" }, "happyRating" : [], "sunRating" : [], "thumpUpRating" : [], "starRating" : [], "heartRating" : [], "__v" : 0 }
{ "title" : "I Gotta Feeling", "artist" : "The Black Eyed Peas", "duration" : "4:49", "trackId" : "4619466", "playlistTitle" : "ac-c-uk.txt", "positionInPlaylist" : 7, "_id" : { "$oid" : "5798a24edcdaa66f1649baf6" }, "happyRating" : [], "sunRating" : [], "thumpUpRating" : [], "starRating" : [], "heartRating" : [], "__v" : 0 }
{ "title" : "Someone Like You", "artist" : "Adele", "duration" : "4:45", "trackId" : "8086136", "playlistTitle" : "ac-c-uk.txt", "positionInPlaylist" : 8, "_id" : { "$oid" : "5798a24edcdaa66f1649baf7" }, "happyRating" : [], "sunRating" : [], "thumpUpRating" : [], "starRating" : [], "heartRating" : [], "__v" : 0 }
{ "title" : "Living Dead", "artist" : "Marina And The Diamonds", "duration" : "4:04", "trackId" : "65227247", "playlistTitle" : "ac-c-uk.txt", "positionInPlaylist" : 9, "_id" : { "$oid" : "5798a24edcdaa66f1649baf8" }, "happyRating" : [], "sunRating" : [], "thumpUpRating" : [], "starRating" : [], "heartRating" : [], "__v" : 0 }
{ "title" : "Too Close", "artist" : "Alex Clare", "duration" : "4:17", "trackId" : "12324769", "playlistTitle" : "ac-c-uk.txt", "positionInPlaylist" : 10, "_id" : { "$oid" : "5798a24edcdaa66f1649baf9" }, "happyRating" : [], "sunRating" : [], "thumpUpRating" : [], "starRating" : [], "heartRating" : [], "__v" : 0 }
{ "title" : "Call Me Maybe", "artist" : "Carly Rae Jepsen", "duration" : "3:13", "trackId" : "60726419", "playlistTitle" : "ac-c-uk.txt", "positionInPlaylist" : 11, "_id" : { "$oid" : "5798a24edcdaa66f1649bafa" }, "happyRating" : [], "sunRating" : [], "thumpUpRating" : [], "starRating" : [], "heartRating" : [], "__v" : 0 }
{ "title" : "Animal", "artist" : "CONOR MAYNARD", "duration" : "3:16", "trackId" : "65554661", "playlistTitle" : "ac-c-uk.txt", "positionInPlaylist" : 12, "_id" : { "$oid" : "5798a24edcdaa66f1649bafb" }, "happyRating" : [], "sunRating" : [], "thumpUpRating" : [], "starRating" : [], "heartRating" : [], "__v" : 0 }
{ "title" : "Diamonds", "artist" : "Rihanna", "duration" : "3:45", "trackId" : "60978718", "playlistTitle" : "ac-c-wk.txt", "positionInPlaylist" : 1, "_id" : { "$oid" : "5798a263dcdaa66f1649bafd" }, "happyRating" : [], "sunRating" : [], "thumpUpRating" : [], "starRating" : [], "heartRating" : [], "__v" : 0 }
{ "title" : "Boulevard Of Broken Dreams (Single Album Version)", "artist" : "Green Day", "duration" : "4:21", "trackId" : "6611231", "playlistTitle" : "ac-c-wk.txt", "positionInPlaylist" : 2, "_id" : { "$oid" : "5798a263dcdaa66f1649bafe" }, "happyRating" : [], "sunRating" : [], "thumpUpRating" : [], "starRating" : [], "heartRating" : [], "__v" : 0 }
{ "title" : "Hero (feat. Josey Scott)", "artist" : "Chad Kroeger", "duration" : "3:20", "trackId" : "3866895", "playlistTitle" : "ac-c-wk.txt", "positionInPlaylist" : 3, "_id" : { "$oid" : "5798a263dcdaa66f1649baff" }, "happyRating" : [], "sunRating" : [], "thumpUpRating" : [], "starRating" : [], "heartRating" : [], "__v" : 0 }
{ "title" : "Locked Out Of Heaven", "artist" : "Bruno Mars", "duration" : "3:53", "trackId" : "62724015", "playlistTitle" : "ac-c-wk.txt", "positionInPlaylist" : 4, "_id" : { "$oid" : "5798a263dcdaa66f1649bb00" }, "happyRating" : [], "sunRating" : [], "thumpUpRating" : [], "starRating" : [], "heartRating" : [], "__v" : 0 }
{ "title" : "Summertime Sadness", "artist" : "Lana Del Rey", "duration" : "4:25", "trackId" : "16047072", "playlistTitle" : "ac-c-wk.txt", "positionInPlaylist" : 5, "_id" : { "$oid" : "5798a263dcdaa66f1649bb01" }, "happyRating" : [], "sunRating" : [], "thumpUpRating" : [], "starRating" : [], "heartRating" : [], "__v" : 0 }
{ "title" : "Still", "artist" : "Jupiter Jones", "duration" : "3:57", "trackId" : "9933634", "playlistTitle" : "ac-c-wk.txt", "positionInPlaylist" : 6, "_id" : { "$oid" : "5798a263dcdaa66f1649bb02" }, "happyRating" : [], "sunRating" : [], "thumpUpRating" : [], "starRating" : [], "heartRating" : [], "__v" : 0 }
{ "title" : "I Gotta Feeling", "artist" : "The Black Eyed Peas", "duration" : "4:49", "trackId" : "4619466", "playlistTitle" : "ac-c-wk.txt", "positionInPlaylist" : 7, "_id" : { "$oid" : "5798a263dcdaa66f1649bb03" }, "happyRating" : [], "sunRating" : [], "thumpUpRating" : [], "starRating" : [], "heartRating" : [], "__v" : 0 }
{ "title" : "Someone Like You", "artist" : "Adele", "duration" : "4:45", "trackId" : "8086136", "playlistTitle" : "ac-c-wk.txt", "positionInPlaylist" : 8, "_id" : { "$oid" : "5798a263dcdaa66f1649bb04" }, "happyRating" : [], "sunRating" : [], "thumpUpRating" : [], "starRating" : [], "heartRating" : [], "__v" : 0 }
{ "title" : "White Flag", "artist" : "Dido", "duration" : "4:00", "trackId" : "2654326", "playlistTitle" : "ac-c-wk.txt", "positionInPlaylist" : 9, "_id" : { "$oid" : "5798a263dcdaa66f1649bb05" }, "happyRating" : [], "sunRating" : [], "thumpUpRating" : [], "starRating" : [], "heartRating" : [], "__v" : 0 }
{ "title" : "Too Close", "artist" : "Alex Clare", "duration" : "4:17", "trackId" : "12324769", "playlistTitle" : "ac-c-wk.txt", "positionInPlaylist" : 10, "_id" : { "$oid" : "5798a263dcdaa66f1649bb06" }, "happyRating" : [], "sunRating" : [], "thumpUpRating" : [], "starRating" : [], "heartRating" : [], "__v" : 0 }
{ "title" : "Call Me Maybe", "artist" : "Carly Rae Jepsen", "duration" : "3:13", "trackId" : "60726419", "playlistTitle" : "ac-c-wk.txt", "positionInPlaylist" : 11, "_id" : { "$oid" : "5798a263dcdaa66f1649bb07" }, "happyRating" : [], "sunRating" : [], "thumpUpRating" : [], "starRating" : [], "heartRating" : [], "__v" : 0 }
{ "title" : "Hangover", "artist" : "Taio Cruz", "duration" : "4:04", "trackId" : "14893478", "playlistTitle" : "ac-c-wk.txt", "positionInPlaylist" : 12, "_id" : { "$oid" : "5798a263dcdaa66f1649bb08" }, "happyRating" : [], "sunRating" : [], "thumpUpRating" : [], "starRating" : [], "heartRating" : [], "__v" : 0 }
{ "title" : "Diamonds", "artist" : "Rihanna", "duration" : "3:45", "trackId" : "60978718", "playlistTitle" : "chr-nc-uk.txt", "positionInPlaylist" : 1, "songColor" : "#123456", "_id" : { "$oid" : "5798d904cb8e93a414558566" }, "happyRating" : [], "sunRating" : [], "thumpUpRating" : [], "starRating" : [], "heartRating" : [], "__v" : 0 }
{ "title" : "Boulevard Of Broken Dreams (Single Album Version)", "artist" : "Green Day", "duration" : "4:21", "trackId" : "6611231", "playlistTitle" : "chr-nc-uk.txt", "positionInPlaylist" : 2, "songColor" : "#123456", "_id" : { "$oid" : "5798d904cb8e93a414558567" }, "happyRating" : [], "sunRating" : [], "thumpUpRating" : [], "starRating" : [], "heartRating" : [], "__v" : 0 }
{ "title" : "Rebel Beat", "artist" : "The Goo Goo Dolls", "duration" : "3:34", "trackId" : "67754729", "playlistTitle" : "chr-nc-uk.txt", "positionInPlaylist" : 3, "songColor" : "#123456", "_id" : { "$oid" : "5798d904cb8e93a414558568" }, "happyRating" : [], "sunRating" : [], "thumpUpRating" : [], "starRating" : [], "heartRating" : [], "__v" : 0 }
{ "title" : "Locked Out Of Heaven", "artist" : "Bruno Mars", "duration" : "3:53", "trackId" : "62724015", "playlistTitle" : "chr-nc-uk.txt", "positionInPlaylist" : 4, "songColor" : "#123456", "_id" : { "$oid" : "5798d904cb8e93a414558569" }, "happyRating" : [], "sunRating" : [], "thumpUpRating" : [], "starRating" : [], "heartRating" : [], "__v" : 0 }
{ "title" : "Summertime Sadness", "artist" : "Lana Del Rey", "duration" : "4:25", "trackId" : "16047072", "playlistTitle" : "chr-nc-uk.txt", "positionInPlaylist" : 5, "songColor" : "#123456", "_id" : { "$oid" : "5798d904cb8e93a41455856a" }, "happyRating" : [], "sunRating" : [], "thumpUpRating" : [], "starRating" : [], "heartRating" : [], "__v" : 0 }
{ "title" : "Sweet Spot", "artist" : "Flo Rida", "duration" : "3:48", "trackId" : "65232774", "playlistTitle" : "chr-nc-uk.txt", "positionInPlaylist" : 6, "songColor" : "#123456", "_id" : { "$oid" : "5798d904cb8e93a41455856b" }, "happyRating" : [], "sunRating" : [], "thumpUpRating" : [], "starRating" : [], "heartRating" : [], "__v" : 0 }
{ "title" : "I Gotta Feeling", "artist" : "The Black Eyed Peas", "duration" : "4:49", "trackId" : "4619466", "playlistTitle" : "chr-nc-uk.txt", "positionInPlaylist" : 7, "songColor" : "#123456", "_id" : { "$oid" : "5798d904cb8e93a41455856c" }, "happyRating" : [], "sunRating" : [], "thumpUpRating" : [], "starRating" : [], "heartRating" : [], "__v" : 0 }
{ "title" : "Someone Like You", "artist" : "Adele", "duration" : "4:45", "trackId" : "8086136", "playlistTitle" : "chr-nc-uk.txt", "positionInPlaylist" : 8, "songColor" : "#123456", "_id" : { "$oid" : "5798d904cb8e93a41455856d" }, "happyRating" : [], "sunRating" : [], "thumpUpRating" : [], "starRating" : [], "heartRating" : [], "__v" : 0 }
{ "title" : "Catch My Breath", "artist" : "Kelly Clarkson", "duration" : "4:11", "trackId" : "61307494", "playlistTitle" : "chr-nc-uk.txt", "positionInPlaylist" : 9, "songColor" : "#123456", "_id" : { "$oid" : "5798d904cb8e93a41455856e" }, "happyRating" : [], "sunRating" : [], "thumpUpRating" : [], "starRating" : [], "heartRating" : [], "__v" : 0 }
{ "title" : "Too Close", "artist" : "Alex Clare", "duration" : "4:17", "trackId" : "12324769", "playlistTitle" : "chr-nc-uk.txt", "positionInPlaylist" : 10, "songColor" : "#123456", "_id" : { "$oid" : "5798d904cb8e93a41455856f" }, "happyRating" : [], "sunRating" : [], "thumpUpRating" : [], "starRating" : [], "heartRating" : [], "__v" : 0 }
{ "title" : "Call Me Maybe", "artist" : "Carly Rae Jepsen", "duration" : "3:13", "trackId" : "60726419", "playlistTitle" : "chr-nc-uk.txt", "positionInPlaylist" : 11, "songColor" : "#123456", "_id" : { "$oid" : "5798d904cb8e93a414558570" }, "happyRating" : [], "sunRating" : [], "thumpUpRating" : [], "starRating" : [], "heartRating" : [], "__v" : 0 }
{ "title" : "Every Day", "artist" : "Eric Prydz", "duration" : "7:14", "trackId" : "118585330", "playlistTitle" : "chr-nc-uk.txt", "positionInPlaylist" : 12, "songColor" : "#123456", "_id" : { "$oid" : "5798d904cb8e93a414558571" }, "happyRating" : [], "sunRating" : [], "thumpUpRating" : [], "starRating" : [], "heartRating" : [], "__v" : 0 }
{ "title" : "Work", "artist" : "Rihanna", "duration" : "3:39", "trackId" : "118190298", "playlistTitle" : "-pop_topk-tags.txt", "colorTag" : "positiveSeed", "positionInPlaylist" : 1, "_id" : { "$oid" : "579a2fb827cf83641f7f605c" }, "happyRating" : [], "sunRating" : [], "thumpUpRating" : [], "starRating" : [], "heartRating" : [], "__v" : 0 }
{ "title" : "Treasure", "artist" : "Bruno Mars", "duration" : "2:58", "trackId" : "62724017", "playlistTitle" : "-pop_topk-tags.txt", "positionInPlaylist" : 2, "_id" : { "$oid" : "579a2fb827cf83641f7f605d" }, "happyRating" : [], "sunRating" : [], "thumpUpRating" : [], "colorTag" : "positiveSeed", "starRating" : [], "heartRating" : [], "__v" : 0 }
{ "title" : "Be Alright", "artist" : "Ariana Grande", "duration" : "2:59", "trackId" : "124996688", "playlistTitle" : "-pop_topk-tags.txt", "positionInPlaylist" : 3, "_id" : { "$oid" : "579a2fb827cf83641f7f605e" }, "happyRating" : [], "sunRating" : [], "thumpUpRating" : [], "starRating" : [], "heartRating" : [], "__v" : 0 }
{ "title" : "Shut Up", "artist" : "Christina Aguilera", "duration" : "2:52", "trackId" : "61752341", "playlistTitle" : "-pop_topk-tags.txt", "positionInPlaylist" : 4, "_id" : { "$oid" : "579a2fb827cf83641f7f605f" }, "happyRating" : [], "sunRating" : [], "thumpUpRating" : [], "starRating" : [], "heartRating" : [], "__v" : 0 }
{ "title" : "Got to Get", "artist" : "Rob 'n' Raz", "duration" : "3:21", "trackId" : "109734532", "playlistTitle" : "-pop_topk-tags.txt", "positionInPlaylist" : 5, "_id" : { "$oid" : "579a2fb827cf83641f7f6060" }, "happyRating" : [], "sunRating" : [], "thumpUpRating" : [], "starRating" : [], "heartRating" : [], "__v" : 0 }
{ "title" : "Thorn In The Side", "artist" : "Somos", "duration" : "2:57", "trackId" : "116988488", "playlistTitle" : "-pop_topk-tags.txt", "positionInPlaylist" : 6, "_id" : { "$oid" : "579a2fb827cf83641f7f6061" }, "happyRating" : [], "sunRating" : [], "thumpUpRating" : [], "starRating" : [], "heartRating" : [], "__v" : 0 }
{ "title" : "El Adios", "artist" : "Los Romeros de la Puebla", "duration" : "4:22", "trackId" : "66383767", "playlistTitle" : "-pop_topk-tags.txt", "positionInPlaylist" : 7, "_id" : { "$oid" : "579a2fb827cf83641f7f6062" }, "happyRating" : [], "sunRating" : [], "thumpUpRating" : [], "starRating" : [], "heartRating" : [], "__v" : 0 }
{ "title" : "Incident on 57th Street", "artist" : "Bruce Springsteen", "duration" : "7:45", "trackId" : "15178020", "playlistTitle" : "-pop_topk-tags.txt", "positionInPlaylist" : 8, "_id" : { "$oid" : "579a2fb827cf83641f7f6063" }, "happyRating" : [], "sunRating" : [], "thumpUpRating" : [], "starRating" : [], "heartRating" : [], "__v" : 0 }
{ "title" : "Entropy", "artist" : "Distrion & Alex Skrindo", "duration" : "3:24", "trackId" : "105579762", "playlistTitle" : "-pop_topk-tags.txt", "positionInPlaylist" : 9, "_id" : { "$oid" : "579a2fb827cf83641f7f6064" }, "happyRating" : [], "sunRating" : [], "thumpUpRating" : [], "starRating" : [], "heartRating" : [], "__v" : 0 }
{ "title" : "Yo Me Pongo Mi Sombrero", "artist" : "Coro de la Hermandad del Rocio de Sevilla", "duration" : "3:30", "trackId" : "71995258", "playlistTitle" : "-pop_topk-tags.txt", "positionInPlaylist" : 10, "_id" : { "$oid" : "579a2fb827cf83641f7f6065" }, "happyRating" : [], "sunRating" : [], "thumpUpRating" : [], "starRating" : [], "heartRating" : [], "__v" : 0 }
{ "title" : "Smash Or Be Smashed", "artist" : "Earth Crisis", "duration" : "2:39", "trackId" : "13844646", "playlistTitle" : "-pop_topk-tags.txt", "positionInPlaylist" : 11, "_id" : { "$oid" : "579a2fb827cf83641f7f6066" }, "happyRating" : [], "sunRating" : [], "thumpUpRating" : [], "starRating" : [], "heartRating" : [], "__v" : 0 }
{ "title" : "Dois Corações e uma História", "artist" : "Bonde do Forro", "duration" : "3:25", "trackId" : "75643972", "playlistTitle" : "-pop_topk-tags.txt", "positionInPlaylist" : 12, "_id" : { "$oid" : "579a2fb827cf83641f7f6067" }, "happyRating" : [], "sunRating" : [], "thumpUpRating" : [], "starRating" : [], "heartRating" : [], "__v" : 0 }
{ "title" : "He Doesnt Know", "artist" : "Anon", "duration" : "2:48", "trackId" : "68924380", "playlistTitle" : "-pop_topk-tags.txt", "positionInPlaylist" : 130, "colorTag" : "negativeSeed", "_id" : { "$oid" : "579a2fb827cf83641f7f6068" }, "happyRating" : [], "sunRating" : [], "thumpUpRating" : [], "starRating" : [], "heartRating" : [], "__v" : 0 }
{ "title" : "Im Ascheregen", "artist" : "Casper", "duration" : "4:58", "trackId" : "70267012", "playlistTitle" : "-pop_topk-tags.txt", "positionInPlaylist" : 14, "_id" : { "$oid" : "579a2fb827cf83641f7f6069" }, "happyRating" : [], "sunRating" : [], "thumpUpRating" : [], "starRating" : [], "heartRating" : [], "__v" : 0 }
{ "title" : "Someone For Everyone", "artist" : "Jamie Lawson", "duration" : "3:01", "trackId" : "108258888", "playlistTitle" : "-pop_topk-tags.txt", "positionInPlaylist" : 15, "_id" : { "$oid" : "579a2fb827cf83641f7f606a" }, "happyRating" : [], "sunRating" : [], "thumpUpRating" : [], "starRating" : [], "heartRating" : [], "__v" : 0 }
{ "title" : "Ma vlast: Die Moldau", "artist" : "Various Artists", "duration" : "12:21", "trackId" : "71139828", "playlistTitle" : "-pop_topk-tags.txt", "positionInPlaylist" : 16, "_id" : { "$oid" : "579a2fb827cf83641f7f606b" }, "happyRating" : [], "sunRating" : [], "thumpUpRating" : [], "starRating" : [], "heartRating" : [], "__v" : 0 }
{ "title" : "Family Business feat. RQM, Coppa, Sandra Kurzweil, Hubert Tubbs, Lenfant Terrible, Cee, Stereotyp", "artist" : "Al Haca", "duration" : "4:25", "trackId" : "5025044", "playlistTitle" : "-pop_topk-tags.txt", "positionInPlaylist" : 17, "_id" : { "$oid" : "579a2fb827cf83641f7f606c" }, "happyRating" : [], "sunRating" : [], "thumpUpRating" : [], "starRating" : [], "heartRating" : [], "__v" : 0 }
{ "title" : "Take Ü There (feat. Kiesza)", "artist" : "Diplo", "duration" : "3:30", "trackId" : "86044569", "playlistTitle" : "-pop_topk-tags.txt", "positionInPlaylist" : 18, "_id" : { "$oid" : "579a2fb827cf83641f7f606d" }, "happyRating" : [], "sunRating" : [], "thumpUpRating" : [], "starRating" : [], "heartRating" : [], "__v" : 0 }
{ "title" : "Foolish", "artist" : "Tourist", "duration" : "4:03", "trackId" : "123143912", "playlistTitle" : "-pop_topk-tags.txt", "positionInPlaylist" : 19, "_id" : { "$oid" : "579a2fb827cf83641f7f606e" }, "happyRating" : [], "sunRating" : [], "thumpUpRating" : [], "starRating" : [], "heartRating" : [], "__v" : 0 }
{ "title" : "Auguries of Innocence by William Blake", "artist" : "Sir Ralph Richardson", "duration" : "6:36", "trackId" : "11626464", "playlistTitle" : "-pop_topk-tags.txt", "positionInPlaylist" : 200, "_id" : { "$oid" : "579a2fb827cf83641f7f606f" }, "happyRating" : [], "sunRating" : [], "colorTag" : "negativeSeed", "thumpUpRating" : [], "starRating" : [], "heartRating" : [], "__v" : 0 }
{ "title" : "In This Nothingness", "artist" : "Doughnuts", "duration" : "2:44", "trackId" : "13843859", "playlistTitle" : "-pop_topk-tags.txt", "positionInPlaylist" : 21, "_id" : { "$oid" : "579a2fb827cf83641f7f6070" }, "happyRating" : [], "sunRating" : [], "thumpUpRating" : [], "starRating" : [], "heartRating" : [], "__v" : 0 }
{ "title" : "Breed", "artist" : "Otep", "duration" : "3:27", "trackId" : "66025608", "playlistTitle" : "-pop_topk-tags.txt", "positionInPlaylist" : 22, "_id" : { "$oid" : "579a2fb827cf83641f7f6071" }, "happyRating" : [], "sunRating" : [], "thumpUpRating" : [], "starRating" : [], "heartRating" : [], "__v" : 0 }
{ "title" : "3xxxv5", "artist" : "ONE OK ROCK", "duration" : "1:40", "trackId" : "107470102", "playlistTitle" : "-pop_topk-tags.txt", "positionInPlaylist" : 23, "_id" : { "$oid" : "579a2fb827cf83641f7f6072" }, "happyRating" : [], "sunRating" : [], "thumpUpRating" : [], "starRating" : [], "heartRating" : [], "__v" : 0 }
{ "title" : "Tu Rey Soy Yo", "artist" : "Silvestre Dangond", "duration" : "4:38", "trackId" : "77995022", "playlistTitle" : "-pop_topk-tags.txt", "positionInPlaylist" : 24, "_id" : { "$oid" : "579a2fb827cf83641f7f6073" }, "happyRating" : [], "sunRating" : [], "thumpUpRating" : [], "starRating" : [], "heartRating" : [], "__v" : 0 }
{ "title" : "Human Touch", "artist" : "Bruce Springsteen", "duration" : "5:09", "trackId" : "15177153", "playlistTitle" : "-pop_topk-tags.txt", "positionInPlaylist" : 25, "_id" : { "$oid" : "579a2fb827cf83641f7f6074" }, "happyRating" : [], "sunRating" : [], "thumpUpRating" : [], "starRating" : [], "heartRating" : [], "__v" : 0 }
{ "title" : "Impatience (feat. Cam Smith)", "artist" : "Conveyer", "duration" : "4:05", "trackId" : "104355494", "playlistTitle" : "-pop_topk-tags.txt", "positionInPlaylist" : 26, "_id" : { "$oid" : "579a2fb827cf83641f7f6075" }, "happyRating" : [], "sunRating" : [], "thumpUpRating" : [], "starRating" : [], "heartRating" : [], "__v" : 0 }
{ "title" : "Seca la Garganta", "artist" : "Blazer", "duration" : "2:39", "trackId" : "108320720", "playlistTitle" : "-pop_topk-tags.txt", "positionInPlaylist" : 27, "_id" : { "$oid" : "579a2fb827cf83641f7f6076" }, "happyRating" : [], "sunRating" : [], "thumpUpRating" : [], "starRating" : [], "heartRating" : [], "__v" : 0 }
{ "title" : "Nailbiter", "artist" : "Sister Sin", "duration" : "3:32", "trackId" : "71709843", "playlistTitle" : "-pop_topk-tags.txt", "positionInPlaylist" : 280, "_id" : { "$oid" : "579a2fb827cf83641f7f6077" }, "happyRating" : [], "sunRating" : [], "thumpUpRating" : [], "colorTag" : "negativeSeed", "starRating" : [], "heartRating" : [], "__v" : 0 }
{ "title" : "No One", "artist" : "Integrity", "duration" : "0:42", "trackId" : "13843660", "playlistTitle" : "-pop_topk-tags.txt", "positionInPlaylist" : 29, "_id" : { "$oid" : "579a2fb827cf83641f7f6078" }, "happyRating" : [], "sunRating" : [], "thumpUpRating" : [], "starRating" : [], "heartRating" : [], "__v" : 0 }
{ "title" : "Work", "artist" : "Rihanna", "duration" : "3:39", "trackId" : "118190298", "playlistTitle" : "E:\\tmp\\kyrillplaylists\\pop_non-pop_mfcc.txt", "positionInPlaylist" : 1, "_id" : { "$oid" : "579a321785bdd4141e21a03b" }, "happyRating" : [], "sunRating" : [], "thumpUpRating" : [], "starRating" : [], "colorTag" : "positiveSeed", "heartRating" : [], "__v" : 0 }
{ "title" : "Treasure", "artist" : "Bruno Mars", "duration" : "2:58", "trackId" : "62724017", "playlistTitle" : "E:\\tmp\\kyrillplaylists\\pop_non-pop_mfcc.txt", "positionInPlaylist" : 2, "_id" : { "$oid" : "579a321785bdd4141e21a03c" }, "colorTag" : "positiveSeed", "happyRating" : [], "sunRating" : [], "thumpUpRating" : [], "starRating" : [], "heartRating" : [], "__v" : 0 }
{ "title" : "Work", "artist" : "Rihanna", "duration" : "3:39", "trackId" : "118190298", "playlistTitle" : "E:\\tmp\\kyrillplaylists\\pop_non-pop_mfcc.txt123213", "positionInPlaylist" : 1, "_id" : { "$oid" : "579a324685bdd4141e21a03e" }, "happyRating" : [], "sunRating" : [], "thumpUpRating" : [], "colorTag" : "positiveSeed", "starRating" : [], "heartRating" : [], "__v" : 0 }
{ "title" : "Treasure", "artist" : "Bruno Mars", "duration" : "2:58", "trackId" : "62724017", "playlistTitle" : "E:\\tmp\\kyrillplaylists\\pop_non-pop_mfcc.txt123213", "positionInPlaylist" : 2, "_id" : { "$oid" : "579a324685bdd4141e21a03f" }, "happyRating" : [], "colorTag" : "positiveSeed", "sunRating" : [], "thumpUpRating" : [], "starRating" : [], "heartRating" : [], "__v" : 0 }
{ "title" : "Work", "artist" : "Rihanna", "duration" : "3:39", "trackId" : "118190298", "playlistTitle" : "234", "positionInPlaylist" : 1, "_id" : { "$oid" : "579a3268d11d8b3421f0a8d5" }, "happyRating" : [], "sunRating" : [], "thumpUpRating" : [], "starRating" : [], "colorTag" : "positiveSeed", "heartRating" : [], "__v" : 0 }
{ "title" : "Treasure", "artist" : "Bruno Mars", "duration" : "2:58", "trackId" : "62724017", "playlistTitle" : "234", "positionInPlaylist" : 2, "_id" : { "$oid" : "579a3268d11d8b3421f0a8d6" }, "happyRating" : [], "sunRating" : [], "thumpUpRating" : [], "starRating" : [], "colorTag" : "positiveSeed", "heartRating" : [], "__v" : 0 }
{ "title" : "Work", "artist" : "Rihanna", "duration" : "3:39", "trackId" : "118190298", "playlistTitle" : "Pop non Pop I", "colorTag" : "positiveSeed", "positionInPlaylist" : 1, "_id" : { "$oid" : "57a069b873abdacd05da45a5" }, "happyRating" : [], "sunRating" : [], "thumpUpRating" : [], "starRating" : [], "heartRating" : [], "__v" : 0 }
{ "title" : "Treasure", "artist" : "Bruno Mars", "duration" : "2:58", "trackId" : "62724017", "playlistTitle" : "Pop non Pop I", "positionInPlaylist" : 2, "colorTag" : "positiveSeed", "_id" : { "$oid" : "57a069b873abdacd05da45a6" }, "happyRating" : [], "sunRating" : [], "thumpUpRating" : [], "starRating" : [], "heartRating" : [], "__v" : 0 }
{ "title" : "Be Alright", "artist" : "Ariana Grande", "duration" : "2:59", "trackId" : "124996688", "playlistTitle" : "Pop non Pop I", "positionInPlaylist" : 3, "_id" : { "$oid" : "57a069b873abdacd05da45a7" }, "happyRating" : [], "colorTag" : "positiveSeed", "sunRating" : [], "thumpUpRating" : [], "starRating" : [], "heartRating" : [], "__v" : 0 }
{ "title" : "Shut Up", "artist" : "Christina Aguilera", "duration" : "2:52", "trackId" : "61752341", "playlistTitle" : "Pop non Pop I", "positionInPlaylist" : 4, "_id" : { "$oid" : "57a069b873abdacd05da45a8" }, "happyRating" : [], "sunRating" : [], "thumpUpRating" : [], "starRating" : [], "heartRating" : [], "__v" : 0 }
{ "title" : "Got to Get", "artist" : "Rob 'n' Raz", "duration" : "3:21", "trackId" : "109734532", "playlistTitle" : "Pop non Pop I", "positionInPlaylist" : 5, "_id" : { "$oid" : "57a069b873abdacd05da45a9" }, "happyRating" : [], "sunRating" : [], "thumpUpRating" : [], "starRating" : [], "heartRating" : [], "__v" : 0 }
{ "title" : "Thorn In The Side", "artist" : "Somos", "duration" : "2:57", "trackId" : "116988488", "playlistTitle" : "Pop non Pop I", "positionInPlaylist" : 6, "_id" : { "$oid" : "57a069b873abdacd05da45aa" }, "happyRating" : [], "sunRating" : [], "thumpUpRating" : [], "starRating" : [], "heartRating" : [], "__v" : 0 }
{ "title" : "El Adios", "artist" : "Los Romeros de la Puebla", "duration" : "4:22", "trackId" : "66383767", "playlistTitle" : "Pop non Pop I", "positionInPlaylist" : 7, "_id" : { "$oid" : "57a069b873abdacd05da45ab" }, "happyRating" : [], "sunRating" : [], "thumpUpRating" : [], "starRating" : [], "heartRating" : [], "__v" : 0 }
{ "title" : "Incident on 57th Street", "artist" : "Bruce Springsteen", "duration" : "7:45", "trackId" : "15178020", "playlistTitle" : "Pop non Pop I", "positionInPlaylist" : 8, "_id" : { "$oid" : "57a069b873abdacd05da45ac" }, "happyRating" : [], "sunRating" : [], "thumpUpRating" : [], "starRating" : [], "heartRating" : [], "__v" : 0 }
{ "title" : "Entropy", "artist" : "Distrion & Alex Skrindo", "duration" : "3:24", "trackId" : "105579762", "playlistTitle" : "Pop non Pop I", "positionInPlaylist" : 9, "_id" : { "$oid" : "57a069b873abdacd05da45ad" }, "happyRating" : [], "sunRating" : [], "thumpUpRating" : [], "starRating" : [], "heartRating" : [], "__v" : 0 }
{ "title" : "Yo Me Pongo Mi Sombrero", "artist" : "Coro de la Hermandad del Rocio de Sevilla", "duration" : "3:30", "trackId" : "71995258", "playlistTitle" : "Pop non Pop I", "positionInPlaylist" : 10, "_id" : { "$oid" : "57a069b873abdacd05da45ae" }, "happyRating" : [], "sunRating" : [], "thumpUpRating" : [], "starRating" : [], "heartRating" : [], "__v" : 0 }
{ "title" : "Smash Or Be Smashed", "artist" : "Earth Crisis", "duration" : "2:39", "trackId" : "13844646", "playlistTitle" : "Pop non Pop I", "positionInPlaylist" : 11, "_id" : { "$oid" : "57a069b873abdacd05da45af" }, "happyRating" : [], "sunRating" : [], "thumpUpRating" : [], "starRating" : [], "heartRating" : [], "__v" : 0 }
{ "title" : "Dois corações e uma história", "artist" : "Mateus & Cristiano", "duration" : "3:49", "trackId" : "5815637", "playlistTitle" : "Pop non Pop I", "positionInPlaylist" : 12, "_id" : { "$oid" : "57a069b873abdacd05da45b0" }, "happyRating" : [], "sunRating" : [], "thumpUpRating" : [], "starRating" : [], "heartRating" : [], "__v" : 0 }
{ "title" : "He Doesnt Know", "artist" : "Anon", "duration" : "2:48", "trackId" : "68924380", "playlistTitle" : "Pop non Pop I", "positionInPlaylist" : 130, "_id" : { "$oid" : "57a069b873abdacd05da45b1" }, "colorTag" : "negativeSeed", "happyRating" : [], "sunRating" : [], "thumpUpRating" : [], "starRating" : [], "heartRating" : [], "__v" : 0 }
{ "title" : "Im Ascheregen", "artist" : "Casper", "duration" : "4:58", "trackId" : "70267012", "playlistTitle" : "Pop non Pop I", "positionInPlaylist" : 14, "_id" : { "$oid" : "57a069b873abdacd05da45b2" }, "happyRating" : [], "sunRating" : [], "thumpUpRating" : [], "starRating" : [], "heartRating" : [], "__v" : 0 }
{ "title" : "Someone For Everyone", "artist" : "Jamie Lawson", "duration" : "3:01", "trackId" : "108258888", "playlistTitle" : "Pop non Pop I", "positionInPlaylist" : 15, "_id" : { "$oid" : "57a069b873abdacd05da45b3" }, "happyRating" : [], "sunRating" : [], "thumpUpRating" : [], "starRating" : [], "heartRating" : [], "__v" : 0 }
{ "title" : "Ma vlast: Die Moldau", "artist" : "Various Artists", "duration" : "12:21", "trackId" : "71139828", "playlistTitle" : "Pop non Pop I", "positionInPlaylist" : 16, "_id" : { "$oid" : "57a069b873abdacd05da45b4" }, "happyRating" : [], "sunRating" : [], "thumpUpRating" : [], "starRating" : [], "heartRating" : [], "__v" : 0 }
{ "title" : "Family Business feat. RQM, Coppa, Sandra Kurzweil, Hubert Tubbs, Lenfant Terrible, Cee, Stereotyp", "artist" : "Al Haca", "duration" : "4:25", "trackId" : "5025044", "playlistTitle" : "Pop non Pop I", "positionInPlaylist" : 17, "_id" : { "$oid" : "57a069b873abdacd05da45b5" }, "happyRating" : [], "sunRating" : [], "thumpUpRating" : [], "starRating" : [], "heartRating" : [], "__v" : 0 }
{ "title" : "Take Ü There (feat. Kiesza)", "artist" : "Diplo", "duration" : "3:30", "trackId" : "86044569", "playlistTitle" : "Pop non Pop I", "positionInPlaylist" : 18, "_id" : { "$oid" : "57a069b873abdacd05da45b6" }, "happyRating" : [], "sunRating" : [], "thumpUpRating" : [], "starRating" : [], "heartRating" : [], "__v" : 0 }
{ "title" : "Foolish", "artist" : "Tourist", "duration" : "4:03", "trackId" : "123143912", "playlistTitle" : "Pop non Pop I", "positionInPlaylist" : 19, "_id" : { "$oid" : "57a069b873abdacd05da45b7" }, "happyRating" : [], "sunRating" : [], "thumpUpRating" : [], "starRating" : [], "heartRating" : [], "__v" : 0 }
{ "title" : "Auguries of Innocence by William Blake", "artist" : "Sir Ralph Richardson", "duration" : "6:36", "trackId" : "11626464", "playlistTitle" : "Pop non Pop I", "positionInPlaylist" : 200, "_id" : { "$oid" : "57a069b873abdacd05da45b8" }, "happyRating" : [], "sunRating" : [], "thumpUpRating" : [], "colorTag" : "negativeSeed", "starRating" : [], "heartRating" : [], "__v" : 0 }
{ "title" : "In This Nothingness", "artist" : "Doughnuts", "duration" : "2:44", "trackId" : "13843859", "playlistTitle" : "Pop non Pop I", "positionInPlaylist" : 21, "_id" : { "$oid" : "57a069b873abdacd05da45b9" }, "happyRating" : [], "sunRating" : [], "thumpUpRating" : [], "starRating" : [], "heartRating" : [], "__v" : 0 }
{ "title" : "Breed", "artist" : "Otep", "duration" : "3:27", "trackId" : "66025608", "playlistTitle" : "Pop non Pop I", "positionInPlaylist" : 22, "_id" : { "$oid" : "57a069b873abdacd05da45ba" }, "happyRating" : [], "sunRating" : [], "thumpUpRating" : [], "starRating" : [], "heartRating" : [], "__v" : 0 }
{ "title" : "3xxxv5", "artist" : "ONE OK ROCK", "duration" : "1:40", "trackId" : "107470102", "playlistTitle" : "Pop non Pop I", "positionInPlaylist" : 23, "_id" : { "$oid" : "57a069b873abdacd05da45bb" }, "happyRating" : [], "sunRating" : [], "thumpUpRating" : [], "starRating" : [], "heartRating" : [], "__v" : 0 }
{ "title" : "Tu Rey Soy Yo", "artist" : "Silvestre Dangond", "duration" : "4:38", "trackId" : "77995022", "playlistTitle" : "Pop non Pop I", "positionInPlaylist" : 24, "_id" : { "$oid" : "57a069b873abdacd05da45bc" }, "happyRating" : [], "sunRating" : [], "thumpUpRating" : [], "starRating" : [], "heartRating" : [], "__v" : 0 }
{ "title" : "Human Touch", "artist" : "Bruce Springsteen", "duration" : "5:09", "trackId" : "15177153", "playlistTitle" : "Pop non Pop I", "positionInPlaylist" : 25, "_id" : { "$oid" : "57a069b873abdacd05da45bd" }, "happyRating" : [], "sunRating" : [], "thumpUpRating" : [], "starRating" : [], "heartRating" : [], "__v" : 0 }
{ "title" : "Impatience (feat. Cam Smith)", "artist" : "Conveyer", "duration" : "4:05", "trackId" : "104355494", "playlistTitle" : "Pop non Pop I", "positionInPlaylist" : 26, "_id" : { "$oid" : "57a069b873abdacd05da45be" }, "happyRating" : [], "sunRating" : [], "thumpUpRating" : [], "starRating" : [], "heartRating" : [], "__v" : 0 }
{ "title" : "Seca la Garganta", "artist" : "Blazer", "duration" : "2:39", "trackId" : "108320720", "playlistTitle" : "Pop non Pop I", "positionInPlaylist" : 27, "_id" : { "$oid" : "57a069b873abdacd05da45bf" }, "happyRating" : [], "sunRating" : [], "thumpUpRating" : [], "starRating" : [], "heartRating" : [], "__v" : 0 }
{ "title" : "Nailbiter", "artist" : "Sister Sin", "duration" : "3:32", "trackId" : "71709843", "playlistTitle" : "Pop non Pop I", "positionInPlaylist" : 280, "_id" : { "$oid" : "57a069b873abdacd05da45c0" }, "happyRating" : [], "sunRating" : [], "thumpUpRating" : [], "colorTag" : "negativeSeed", "starRating" : [], "heartRating" : [], "__v" : 0 }
{ "title" : "No One", "artist" : "Integrity", "duration" : "0:42", "trackId" : "13843660", "playlistTitle" : "Pop non Pop I", "positionInPlaylist" : 29, "_id" : { "$oid" : "57a069b873abdacd05da45c1" }, "happyRating" : [], "sunRating" : [], "thumpUpRating" : [], "starRating" : [], "heartRating" : [], "__v" : 0 }
{ "title" : "Work", "artist" : "Rihanna", "duration" : "3:39", "trackId" : "118190298", "playlistTitle" : "Pop non Pop I - MFCC", "positionInPlaylist" : 1, "colorTag" : "positiveSeed", "_id" : { "$oid" : "57a4b98f7e3a3c6f1d7784d3" }, "happyRating" : [], "sunRating" : [], "thumpUpRating" : [], "starRating" : [], "heartRating" : [], "__v" : 0 }
{ "title" : "Treasure", "artist" : "Bruno Mars", "duration" : "2:58", "trackId" : "62724017", "playlistTitle" : "Pop non Pop I - MFCC", "positionInPlaylist" : 2, "colorTag" : "positiveSeed", "_id" : { "$oid" : "57a4b98f7e3a3c6f1d7784d4" }, "happyRating" : [], "sunRating" : [], "thumpUpRating" : [], "starRating" : [], "heartRating" : [], "__v" : 0 }
{ "__v" : 1, "_id" : { "$oid" : "57a4b98f7e3a3c6f1d7784d5" }, "artist" : "Ariana Grande", "colorTag" : "None", "duration" : "2:59", "happyRating" : [], "heartRating" : [ { "rating" : null, "sessionId" : "seoQ6Ev5rlX5MWYlDb48NzqZRzNESYux", "_id" : { "$oid" : "57a4baaa7e3a3c6f1d778506" } } ], "playlistTitle" : "Pop non Pop I - MFCC", "positionInPlaylist" : 3, "starRating" : [], "sunRating" : [], "colorTag" : "positiveSeed", "thumpUpRating" : [], "title" : "Be Alright", "trackId" : "124996688" }
{ "title" : "Children", "artist" : "Robert Miles", "duration" : "7:06", "trackId" : "121681572", "playlistTitle" : "Pop non Pop I - MFCC", "positionInPlaylist" : 4, "colorTag" : "None", "_id" : { "$oid" : "57a4b98f7e3a3c6f1d7784d6" }, "happyRating" : [], "sunRating" : [], "thumpUpRating" : [], "starRating" : [], "heartRating" : [], "__v" : 0 }
{ "__v" : 1, "_id" : { "$oid" : "57a4b98f7e3a3c6f1d7784d7" }, "artist" : "Alan Walker", "colorTag" : "None", "duration" : "4:24", "happyRating" : [], "heartRating" : [ { "rating" : null, "sessionId" : "seoQ6Ev5rlX5MWYlDb48NzqZRzNESYux", "_id" : { "$oid" : "57a4baa97e3a3c6f1d778505" } } ], "playlistTitle" : "Pop non Pop I - MFCC", "positionInPlaylist" : 5, "starRating" : [], "sunRating" : [], "thumpUpRating" : [], "title" : "Fade", "trackId" : "94173646" }
{ "title" : "Regulate", "artist" : "Warren G", "duration" : "4:10", "trackId" : "2463406", "playlistTitle" : "Pop non Pop I - MFCC", "positionInPlaylist" : 6, "colorTag" : "None", "_id" : { "$oid" : "57a4b98f7e3a3c6f1d7784d8" }, "happyRating" : [], "sunRating" : [], "thumpUpRating" : [], "starRating" : [], "heartRating" : [], "__v" : 0 }
{ "title" : "Beat It / State of Shock", "artist" : "Michael Jackson", "duration" : "3:09", "trackId" : "14552216", "playlistTitle" : "Pop non Pop I - MFCC", "positionInPlaylist" : 7, "colorTag" : "None", "_id" : { "$oid" : "57a4b98f7e3a3c6f1d7784d9" }, "happyRating" : [], "sunRating" : [], "thumpUpRating" : [], "starRating" : [], "heartRating" : [], "__v" : 0 }
{ "title" : "The Model", "artist" : "Kraftwerk", "duration" : "3:42", "trackId" : "73955716", "playlistTitle" : "Pop non Pop I - MFCC", "positionInPlaylist" : 8, "colorTag" : "None", "_id" : { "$oid" : "57a4b98f7e3a3c6f1d7784da" }, "happyRating" : [], "sunRating" : [], "thumpUpRating" : [], "starRating" : [], "heartRating" : [], "__v" : 0 }
{ "__v" : 1, "_id" : { "$oid" : "57a4b98f7e3a3c6f1d7784db" }, "artist" : "Earth Crisis", "colorTag" : "None", "duration" : "2:59", "happyRating" : [], "heartRating" : [ { "rating" : null, "sessionId" : "seoQ6Ev5rlX5MWYlDb48NzqZRzNESYux", "_id" : { "$oid" : "57a4baab7e3a3c6f1d778507" } } ], "playlistTitle" : "Pop non Pop I - MFCC", "positionInPlaylist" : 9, "starRating" : [], "sunRating" : [], "thumpUpRating" : [], "title" : "New Ethic", "trackId" : "100529014" }
{ "title" : "Ego", "artist" : "Willy William", "duration" : "3:27", "trackId" : "109477394", "playlistTitle" : "Pop non Pop I - MFCC", "positionInPlaylist" : 10, "colorTag" : "None", "_id" : { "$oid" : "57a4b98f7e3a3c6f1d7784dc" }, "happyRating" : [], "sunRating" : [], "thumpUpRating" : [], "starRating" : [], "heartRating" : [], "__v" : 0 }
{ "title" : "Incense And Peppermints", "artist" : "Strawberry Alarm Clock", "duration" : "2:47", "trackId" : "906560", "playlistTitle" : "Pop non Pop I - MFCC", "positionInPlaylist" : 11, "colorTag" : "None", "_id" : { "$oid" : "57a4b98f7e3a3c6f1d7784dd" }, "happyRating" : [], "sunRating" : [], "thumpUpRating" : [], "starRating" : [], "heartRating" : [], "__v" : 0 }
{ "title" : "Lovely Day", "artist" : "Bill Withers", "duration" : "4:09", "trackId" : "863897", "playlistTitle" : "Pop non Pop I - MFCC", "positionInPlaylist" : 12, "colorTag" : "None", "_id" : { "$oid" : "57a4b98f7e3a3c6f1d7784de" }, "happyRating" : [], "sunRating" : [], "thumpUpRating" : [], "starRating" : [], "heartRating" : [], "__v" : 0 }
{ "title" : "Clear Eyes, Full Hearts", "artist" : "The Forecast", "duration" : "2:45", "trackId" : "104234600", "playlistTitle" : "Pop non Pop I - MFCC", "positionInPlaylist" : 13, "colorTag" : "None", "_id" : { "$oid" : "57a4b98f7e3a3c6f1d7784df" }, "happyRating" : [], "sunRating" : [], "thumpUpRating" : [], "starRating" : [], "heartRating" : [], "__v" : 0 }
{ "title" : "Pesadilla En El Parque De Atracciones", "artist" : "Los Planetas", "duration" : "2:22", "trackId" : "2280131", "playlistTitle" : "Pop non Pop I - MFCC", "positionInPlaylist" : 14, "colorTag" : "None", "_id" : { "$oid" : "57a4b98f7e3a3c6f1d7784e0" }, "happyRating" : [], "sunRating" : [], "thumpUpRating" : [], "starRating" : [], "heartRating" : [], "__v" : 0 }
{ "title" : "Ma vlast: Die Moldau", "artist" : "Various Artists", "duration" : "12:21", "trackId" : "71139828", "playlistTitle" : "Pop non Pop I - MFCC", "positionInPlaylist" : 15, "colorTag" : "None", "_id" : { "$oid" : "57a4b98f7e3a3c6f1d7784e1" }, "happyRating" : [], "sunRating" : [], "thumpUpRating" : [], "starRating" : [], "heartRating" : [], "__v" : 0 }
{ "title" : "Family Business feat. RQM, Coppa, Sandra Kurzweil, Hubert Tubbs, Lenfant Terrible, Cee, Stereotyp", "artist" : "Al Haca", "duration" : "4:25", "trackId" : "5025044", "playlistTitle" : "Pop non Pop I - MFCC", "positionInPlaylist" : 16, "colorTag" : "None", "_id" : { "$oid" : "57a4b98f7e3a3c6f1d7784e2" }, "happyRating" : [], "sunRating" : [], "thumpUpRating" : [], "starRating" : [], "heartRating" : [], "__v" : 0 }
{ "title" : "Take Ü There (feat. Kiesza)", "artist" : "Diplo", "duration" : "3:30", "trackId" : "86044569", "playlistTitle" : "Pop non Pop I - MFCC", "positionInPlaylist" : 17, "colorTag" : "None", "_id" : { "$oid" : "57a4b98f7e3a3c6f1d7784e3" }, "happyRating" : [], "sunRating" : [], "thumpUpRating" : [], "starRating" : [], "heartRating" : [], "__v" : 0 }
{ "title" : "Figure It Out", "artist" : "The Forecast", "duration" : "2:49", "trackId" : "104234610", "playlistTitle" : "Pop non Pop I - MFCC", "positionInPlaylist" : 18, "colorTag" : "None", "_id" : { "$oid" : "57a4b98f7e3a3c6f1d7784e4" }, "happyRating" : [], "sunRating" : [], "thumpUpRating" : [], "starRating" : [], "heartRating" : [], "__v" : 0 }
{ "title" : "The Philosophy of Time Travel", "artist" : "Emmure", "duration" : "2:36", "trackId" : "13842059", "playlistTitle" : "Pop non Pop I - MFCC", "positionInPlaylist" : 19, "colorTag" : "None", "_id" : { "$oid" : "57a4b98f7e3a3c6f1d7784e5" }, "happyRating" : [], "sunRating" : [], "thumpUpRating" : [], "starRating" : [], "heartRating" : [], "__v" : 0 }
{ "title" : "Work", "artist" : "Rihanna", "duration" : "3:39", "trackId" : "118190298", "playlistTitle" : "Pop non Pop I - Tags", "positionInPlaylist" : 1, "colorTag" : "positiveSeed", "_id" : { "$oid" : "57a4b9d07e3a3c6f1d7784e7" }, "happyRating" : [], "sunRating" : [], "thumpUpRating" : [], "starRating" : [], "heartRating" : [], "__v" : 0 }
{ "title" : "Treasure", "artist" : "Bruno Mars", "duration" : "2:58", "trackId" : "62724017", "playlistTitle" : "Pop non Pop I - Tags", "positionInPlaylist" : 2, "colorTag" : "positiveSeed", "_id" : { "$oid" : "57a4b9d07e3a3c6f1d7784e8" }, "happyRating" : [], "sunRating" : [], "thumpUpRating" : [], "starRating" : [], "heartRating" : [], "__v" : 0 }
{ "title" : "Be Alright", "artist" : "Ariana Grande", "duration" : "2:59", "trackId" : "124996688", "playlistTitle" : "Pop non Pop I - Tags", "positionInPlaylist" : 3, "colorTag" : "None", "_id" : { "$oid" : "57a4b9d07e3a3c6f1d7784e9" }, "happyRating" : [], "sunRating" : [], "thumpUpRating" : [], "colorTag" : "positiveSeed", "starRating" : [], "heartRating" : [], "__v" : 0 }
{ "title" : "Shut Up", "artist" : "Christina Aguilera", "duration" : "2:52", "trackId" : "61752341", "playlistTitle" : "Pop non Pop I - Tags", "positionInPlaylist" : 4, "colorTag" : "None", "_id" : { "$oid" : "57a4b9d07e3a3c6f1d7784ea" }, "happyRating" : [], "sunRating" : [], "thumpUpRating" : [], "starRating" : [], "heartRating" : [], "__v" : 0 }
{ "title" : "Got to Get", "artist" : "Rob 'n' Raz", "duration" : "3:21", "trackId" : "109734532", "playlistTitle" : "Pop non Pop I - Tags", "positionInPlaylist" : 5, "colorTag" : "None", "_id" : { "$oid" : "57a4b9d07e3a3c6f1d7784eb" }, "happyRating" : [], "sunRating" : [], "thumpUpRating" : [], "starRating" : [], "heartRating" : [], "__v" : 0 }
{ "title" : "Thorn In The Side", "artist" : "Somos", "duration" : "2:57", "trackId" : "116988488", "playlistTitle" : "Pop non Pop I - Tags", "positionInPlaylist" : 6, "colorTag" : "None", "_id" : { "$oid" : "57a4b9d07e3a3c6f1d7784ec" }, "happyRating" : [], "sunRating" : [], "thumpUpRating" : [], "starRating" : [], "heartRating" : [], "__v" : 0 }
{ "title" : "El Adios", "artist" : "Los Romeros de la Puebla", "duration" : "4:22", "trackId" : "66383767", "playlistTitle" : "Pop non Pop I - Tags", "positionInPlaylist" : 7, "colorTag" : "None", "_id" : { "$oid" : "57a4b9d07e3a3c6f1d7784ed" }, "happyRating" : [], "sunRating" : [], "thumpUpRating" : [], "starRating" : [], "heartRating" : [], "__v" : 0 }
{ "title" : "Incident on 57th Street", "artist" : "Bruce Springsteen", "duration" : "7:45", "trackId" : "15178020", "playlistTitle" : "Pop non Pop I - Tags", "positionInPlaylist" : 8, "colorTag" : "None", "_id" : { "$oid" : "57a4b9d07e3a3c6f1d7784ee" }, "happyRating" : [], "sunRating" : [], "thumpUpRating" : [], "starRating" : [], "heartRating" : [], "__v" : 0 }
{ "title" : "Entropy", "artist" : "Distrion & Alex Skrindo", "duration" : "3:24", "trackId" : "105579762", "playlistTitle" : "Pop non Pop I - Tags", "positionInPlaylist" : 9, "colorTag" : "None", "_id" : { "$oid" : "57a4b9d07e3a3c6f1d7784ef" }, "happyRating" : [], "sunRating" : [], "thumpUpRating" : [], "starRating" : [], "heartRating" : [], "__v" : 0 }
{ "title" : "Yo Me Pongo Mi Sombrero", "artist" : "Coro de la Hermandad del Rocio de Sevilla", "duration" : "3:30", "trackId" : "71995258", "playlistTitle" : "Pop non Pop I - Tags", "positionInPlaylist" : 10, "colorTag" : "None", "_id" : { "$oid" : "57a4b9d07e3a3c6f1d7784f0" }, "happyRating" : [], "sunRating" : [], "thumpUpRating" : [], "starRating" : [], "heartRating" : [], "__v" : 0 }
{ "title" : "Smash Or Be Smashed", "artist" : "Earth Crisis", "duration" : "2:39", "trackId" : "13844646", "playlistTitle" : "Pop non Pop I - Tags", "positionInPlaylist" : 11, "colorTag" : "None", "_id" : { "$oid" : "57a4b9d07e3a3c6f1d7784f1" }, "happyRating" : [], "sunRating" : [], "thumpUpRating" : [], "starRating" : [], "heartRating" : [], "__v" : 0 }
{ "title" : "Dois Corações e uma História", "artist" : "Gean & Roger", "duration" : "4:01", "trackId" : "129572360", "playlistTitle" : "Pop non Pop I - Tags", "positionInPlaylist" : 12, "colorTag" : "None", "_id" : { "$oid" : "57a4b9d07e3a3c6f1d7784f2" }, "happyRating" : [], "sunRating" : [], "thumpUpRating" : [], "starRating" : [], "heartRating" : [], "__v" : 0 }
{ "title" : "He Doesnt Know", "artist" : "Anon", "duration" : "2:48", "trackId" : "68924380", "playlistTitle" : "Pop non Pop I - Tags", "positionInPlaylist" : 130, "colorTag" : "negativeSeed", "_id" : { "$oid" : "57a4b9d07e3a3c6f1d7784f3" }, "happyRating" : [], "sunRating" : [], "thumpUpRating" : [], "starRating" : [], "heartRating" : [], "__v" : 0 }
{ "title" : "Im Ascheregen", "artist" : "Casper", "duration" : "4:58", "trackId" : "70267012", "playlistTitle" : "Pop non Pop I - Tags", "positionInPlaylist" : 14, "colorTag" : "None", "_id" : { "$oid" : "57a4b9d07e3a3c6f1d7784f4" }, "happyRating" : [], "sunRating" : [], "thumpUpRating" : [], "starRating" : [], "heartRating" : [], "__v" : 0 }
{ "title" : "Someone For Everyone", "artist" : "Jamie Lawson", "duration" : "3:01", "trackId" : "108258888", "playlistTitle" : "Pop non Pop I - Tags", "positionInPlaylist" : 15, "colorTag" : "None", "_id" : { "$oid" : "57a4b9d07e3a3c6f1d7784f5" }, "happyRating" : [], "sunRating" : [], "thumpUpRating" : [], "starRating" : [], "heartRating" : [], "__v" : 0 }
{ "title" : "Ma vlast: Die Moldau", "artist" : "Various Artists", "duration" : "12:21", "trackId" : "71139828", "playlistTitle" : "Pop non Pop I - Tags", "positionInPlaylist" : 16, "colorTag" : "None", "_id" : { "$oid" : "57a4b9d07e3a3c6f1d7784f6" }, "happyRating" : [], "sunRating" : [], "thumpUpRating" : [], "starRating" : [], "heartRating" : [], "__v" : 0 }
{ "title" : "Family Business feat. RQM, Coppa, Sandra Kurzweil, Hubert Tubbs, Lenfant Terrible, Cee, Stereotyp", "artist" : "Al Haca", "duration" : "4:25", "trackId" : "5025044", "playlistTitle" : "Pop non Pop I - Tags", "positionInPlaylist" : 17, "colorTag" : "None", "_id" : { "$oid" : "57a4b9d07e3a3c6f1d7784f7" }, "happyRating" : [], "sunRating" : [], "thumpUpRating" : [], "starRating" : [], "heartRating" : [], "__v" : 0 }
{ "title" : "Take Ü There (feat. Kiesza)", "artist" : "Diplo", "duration" : "3:30", "trackId" : "86044569", "playlistTitle" : "Pop non Pop I - Tags", "positionInPlaylist" : 18, "colorTag" : "None", "_id" : { "$oid" : "57a4b9d07e3a3c6f1d7784f8" }, "happyRating" : [], "sunRating" : [], "thumpUpRating" : [], "starRating" : [], "heartRating" : [], "__v" : 0 }
{ "title" : "Foolish", "artist" : "Tourist", "duration" : "4:03", "trackId" : "123143912", "playlistTitle" : "Pop non Pop I - Tags", "positionInPlaylist" : 19, "colorTag" : "None", "_id" : { "$oid" : "57a4b9d07e3a3c6f1d7784f9" }, "happyRating" : [], "sunRating" : [], "thumpUpRating" : [], "starRating" : [], "heartRating" : [], "__v" : 0 }
{ "title" : "Auguries of Innocence by William Blake", "artist" : "Sir Ralph Richardson", "duration" : "6:36", "trackId" : "11626464", "playlistTitle" : "Pop non Pop I - Tags", "positionInPlaylist" : 200, "colorTag" : "negativeSeed", "_id" : { "$oid" : "57a4b9d07e3a3c6f1d7784fa" }, "happyRating" : [], "sunRating" : [], "thumpUpRating" : [], "starRating" : [], "heartRating" : [], "__v" : 0 }
{ "title" : "In This Nothingness", "artist" : "Doughnuts", "duration" : "2:44", "trackId" : "13843859", "playlistTitle" : "Pop non Pop I - Tags", "positionInPlaylist" : 21, "colorTag" : "None", "_id" : { "$oid" : "57a4b9d07e3a3c6f1d7784fb" }, "happyRating" : [], "sunRating" : [], "thumpUpRating" : [], "starRating" : [], "heartRating" : [], "__v" : 0 }
{ "title" : "Breed", "artist" : "Otep", "duration" : "3:27", "trackId" : "66025608", "playlistTitle" : "Pop non Pop I - Tags", "positionInPlaylist" : 22, "colorTag" : "None", "_id" : { "$oid" : "57a4b9d07e3a3c6f1d7784fc" }, "happyRating" : [], "sunRating" : [], "thumpUpRating" : [], "starRating" : [], "heartRating" : [], "__v" : 0 }
{ "title" : "3xxxv5", "artist" : "ONE OK ROCK", "duration" : "1:40", "trackId" : "107470102", "playlistTitle" : "Pop non Pop I - Tags", "positionInPlaylist" : 23, "colorTag" : "None", "_id" : { "$oid" : "57a4b9d07e3a3c6f1d7784fd" }, "happyRating" : [], "sunRating" : [], "thumpUpRating" : [], "starRating" : [], "heartRating" : [], "__v" : 0 }
{ "title" : "Tu Rey Soy Yo", "artist" : "Silvestre Dangond", "duration" : "4:38", "trackId" : "77995022", "playlistTitle" : "Pop non Pop I - Tags", "positionInPlaylist" : 24, "colorTag" : "None", "_id" : { "$oid" : "57a4b9d07e3a3c6f1d7784fe" }, "happyRating" : [], "sunRating" : [], "thumpUpRating" : [], "starRating" : [], "heartRating" : [], "__v" : 0 }
{ "title" : "Human Touch", "artist" : "Bruce Springsteen", "duration" : "5:09", "trackId" : "15177153", "playlistTitle" : "Pop non Pop I - Tags", "positionInPlaylist" : 25, "colorTag" : "None", "_id" : { "$oid" : "57a4b9d07e3a3c6f1d7784ff" }, "happyRating" : [], "sunRating" : [], "thumpUpRating" : [], "starRating" : [], "heartRating" : [], "__v" : 0 }
{ "title" : "Impatience (feat. Cam Smith)", "artist" : "Conveyer", "duration" : "4:05", "trackId" : "104355494", "playlistTitle" : "Pop non Pop I - Tags", "positionInPlaylist" : 26, "colorTag" : "None", "_id" : { "$oid" : "57a4b9d07e3a3c6f1d778500" }, "happyRating" : [], "sunRating" : [], "thumpUpRating" : [], "starRating" : [], "heartRating" : [], "__v" : 0 }
{ "title" : "Seca la Garganta", "artist" : "Blazer", "duration" : "2:39", "trackId" : "108320720", "playlistTitle" : "Pop non Pop I - Tags", "positionInPlaylist" : 27, "colorTag" : "None", "_id" : { "$oid" : "57a4b9d07e3a3c6f1d778501" }, "happyRating" : [], "sunRating" : [], "thumpUpRating" : [], "starRating" : [], "heartRating" : [], "__v" : 0 }
{ "title" : "Nailbiter", "artist" : "Sister Sin", "duration" : "3:32", "trackId" : "71709843", "playlistTitle" : "Pop non Pop I - Tags", "positionInPlaylist" : 280, "colorTag" : "negativeSeed", "_id" : { "$oid" : "57a4b9d07e3a3c6f1d778502" }, "happyRating" : [], "sunRating" : [], "thumpUpRating" : [], "starRating" : [], "heartRating" : [], "__v" : 0 }
{ "title" : "No One", "artist" : "Integrity", "duration" : "0:42", "trackId" : "13843660", "playlistTitle" : "Pop non Pop I - Tags", "positionInPlaylist" : 29, "colorTag" : "None", "_id" : { "$oid" : "57a4b9d07e3a3c6f1d778503" }, "happyRating" : [], "sunRating" : [], "thumpUpRating" : [], "starRating" : [], "heartRating" : [], "__v" : 0 }
