{
    "playlistTitle": "Example playlist",
    "songList": [{
        "songTitle": "Faded",
        "artist": "Alan Walker",
        "albumTitle": "Faded"
    }, {
        "songTitle": "Die immer lacht",
        "artist": "Stereoact",
        "albumTitle": "Die immer lacht"
    }, {
        "songTitle": "Stitches",
        "artist": "Shawn Mendes",
        "albumTitle": "Handwritten"
    }, {
        "songTitle": "Hey Baby",
        "artist": "Sean Paul",
        "albumTitle": ""
    }, {
        "songTitle": "Sex Cheat Codes X Kris Kross Amsterdam",
        "artist": "Cheat Codes",
        "albumTitle": ""
    }, {
        "songTitle": "Tulpen aus Amsterdam",
        "artist": "Tina Iwanitzki",
        "albumTitle": ""
    }, {
        "songTitle": "Hold Us",
        "artist": "Macklemore",
        "albumTitle": ""
    }, {
        "songTitle": "Baby One More Time",
        "artist": "Britney Spears",
        "albumTitle": ""
    }]
}
